module gitlab.com/zendrulat123/flutters

go 1.13

require (
	github.com/davecgh/go-spew v1.1.1
	github.com/go-sql-driver/mysql v1.5.0
	github.com/gorilla/context v1.1.1
	github.com/gorilla/securecookie v1.1.1
	github.com/logrusorgru/aurora v0.0.0-20200102142835-e9ef32dff381
	github.com/mattn/go-sqlite3 v1.11.0
	github.com/rs/cors v1.7.0
)
